<svg version="1.1" id="圖層_1" xmlns="http://www.w3.org/2000/svg" xmlns:xlink="http://www.w3.org/1999/xlink" x="0px" y="0px" viewBox="0 0 100 100" style="transform-origin: 50px 50px 0px;" xml:space="preserve"><g style="transform-origin: 50px 50px 0px;"><g style="transform-origin: 50px 50px 0px; transform: scale(0.71);"><g style="transform-origin: 50px 50px 0px;"><g><style type="text/css" class="ld ld-fade" style="transform-origin: 50px 50px 0px; animation-duration: 1.9s; animation-delay: -1.9s; animation-direction: normal;">.st0{fill:#333333;} .st1{fill:#FFFFFF;stroke:#E15B64;stroke-width:9;stroke-miterlimit:10;} .st2{fill:#E0E0E0;} .st3{fill:#666666;} .st4{fill:#77A4BD;} .st5{fill:#FFFFFF;} .st6{fill:none;stroke:#E0E0E0;stroke-width:4.1492;stroke-linecap:round;stroke-linejoin:round;stroke-miterlimit:10;} .st7{fill:#E15B64;} .st8{fill:#FFFFFF;stroke:#E15B64;stroke-width:9.375;stroke-miterlimit:10;} .st9{fill:#FFFFFF;stroke:#333333;stroke-width:2.2676;stroke-miterlimit:10;} .st10{fill:#E0E0E0;stroke:#666666;stroke-width:4;stroke-miterlimit:10;} .st11{fill:#CCCCCC;} .st12{fill:none;stroke:#666666;stroke-width:3.8883;stroke-linecap:round;stroke-miterlimit:10;} .st13{fill:#E0E0E0;stroke:#E0E0E0;stroke-width:4.0031;stroke-linecap:round;stroke-miterlimit:10;} .st14{fill:none;stroke:#E0E0E0;stroke-width:4;stroke-linecap:round;stroke-miterlimit:10;} .st15{fill:#66503A;} .st16{fill:#849B87;} .st17{fill:none;stroke:#666666;stroke-width:2;stroke-linecap:round;stroke-miterlimit:10;} .st18{fill:#F47E60;} .st19{fill:#ABBD81;} .st20{fill:#F8B26A;} .st21{fill:none;stroke:#808080;stroke-width:2;stroke-linecap:round;stroke-miterlimit:10;} .st22{fill:#D50D01;} .st23{fill:#F5E6C8;} .st24{fill:#4D85AB;} .st25{fill:#F5E169;} .st26{fill:#FFFFFF;stroke:#000000;stroke-miterlimit:10;} .st27{fill:#E6E6E6;} .st28{stroke:#000000;stroke-miterlimit:10;} .st29{fill:#C33737;} .st30{fill:#FFFFFF;stroke:#E15B64;stroke-width:3;stroke-linecap:round;stroke-miterlimit:10;} .st31{fill:#808080;} .st32{fill:none;stroke:#E0E0E0;stroke-width:3;stroke-linecap:round;stroke-miterlimit:10;} .st33{fill:#666666;stroke:#FFFFFF;stroke-width:0.5834;stroke-linecap:round;stroke-miterlimit:10;} .st34{fill:none;stroke:#333333;stroke-width:4;stroke-linecap:round;stroke-miterlimit:10;} .st35{fill:#32517A;} .st36{fill:none;stroke:#E3CDB3;stroke-width:1.2;stroke-miterlimit:10;} .st37{fill:#E3CDB3;} .st38{fill:#849B87;stroke:#FFFFFF;stroke-width:1.5;stroke-miterlimit:10;} .st39{fill:none;stroke:#FFFFFF;stroke-width:4;stroke-miterlimit:10;} .st40{fill:#E15B64;stroke:#E0E0E0;stroke-width:3.3992;stroke-miterlimit:10;} .st41{fill:none;stroke:#E15B64;stroke-width:11.25;stroke-miterlimit:10;} .st42{fill:#FFFFFF;stroke:#E15B64;stroke-width:10;stroke-miterlimit:10;} .st43{fill:none;stroke:#E15B64;stroke-width:12;stroke-miterlimit:10;} .st44{fill:none;stroke:#333333;stroke-width:5;stroke-miterlimit:10;} .st45{fill:none;stroke:#333333;stroke-width:4.1855;stroke-miterlimit:10;} .st46{fill:#0071BC;stroke:#E15B64;stroke-width:9.375;stroke-miterlimit:10;} .st47{fill:#E15B64;stroke:#E15B64;stroke-width:9.375;stroke-miterlimit:10;} .st48{fill:none;stroke:#FFFFFF;stroke-width:10.6891;stroke-miterlimit:10;} .st49{fill:none;stroke:#E15B64;stroke-width:8;stroke-miterlimit:10;} .st50{fill:#FFFFFF;stroke:#333333;stroke-width:3.8549;stroke-miterlimit:10;} .st51{fill:none;stroke:#C33737;stroke-width:3.0839;stroke-linecap:round;stroke-linejoin:bevel;stroke-miterlimit:10;} .st52{fill:#A0C8D7;stroke:#77A4BD;stroke-width:2.5;stroke-miterlimit:10;} .st53{fill:#A0C8D7;} .st54{fill:none;stroke:#FFFFFF;stroke-width:3.6819;stroke-linecap:round;stroke-miterlimit:10;} .st55{opacity:0.5;fill:#666666;} .st56{fill:none;stroke:#333333;stroke-width:4.6651;stroke-miterlimit:10;} .st57{fill:#849B87;stroke:#FFFFFF;stroke-width:1.4326;stroke-miterlimit:10;} .st58{fill:none;stroke:#FFFFFF;stroke-width:2.5098;stroke-linecap:round;stroke-miterlimit:10;} .st59{fill:none;stroke:#FFFFFF;stroke-width:2.2296;stroke-linecap:round;stroke-miterlimit:10;} .st60{fill:none;stroke:#333333;stroke-width:1.7767;stroke-miterlimit:10;} .st61{fill:none;stroke:#FFFFFF;stroke-width:3.504;stroke-linecap:round;stroke-miterlimit:10;} .st62{fill:none;stroke:#FFFFFF;stroke-width:1.754;stroke-linecap:round;stroke-miterlimit:10;} .st63{fill:none;stroke:#333333;stroke-width:1.6297;stroke-miterlimit:10;} .st64{fill:none;stroke:#FFFFFF;stroke-width:1.6156;stroke-linecap:round;stroke-miterlimit:10;} .st65{fill:none;stroke:#333333;stroke-width:1.5011;stroke-miterlimit:10;} .st66{fill:#C2C2C2;} .st67{fill:none;stroke:#E0E0E0;stroke-width:4.0031;stroke-linecap:round;stroke-miterlimit:10;} .st68{fill:none;stroke:#666666;stroke-width:2.72;stroke-linecap:round;stroke-miterlimit:10;} .st69{fill:#F8B26A;stroke:#333333;stroke-width:3.0598;stroke-miterlimit:10;} .st70{fill:none;stroke:#FFFFFF;stroke-width:1.4118;stroke-linecap:round;stroke-miterlimit:10;} .st71{fill:none;stroke:#333333;stroke-width:4.3583;stroke-miterlimit:10;} .st72{fill:#77A4BD;stroke:#E0E0E0;stroke-width:3.2;stroke-miterlimit:10;} .st73{opacity:0.1;} .st74{fill:#E15B64;stroke:#E0E0E0;stroke-width:1.9832;stroke-miterlimit:10;} .st75{fill:none;stroke:#FFFFFF;stroke-width:2.3679;stroke-linecap:round;stroke-miterlimit:10;} .st76{fill:none;stroke:#A0C8D7;stroke-width:2.8855;stroke-linecap:round;stroke-miterlimit:10;} .st77{fill:none;stroke:#F8B26A;stroke-width:2.6943;stroke-linecap:round;stroke-miterlimit:10;} .st78{opacity:0.5;fill:#FFFFFF;} .st79{opacity:0.5;}</style><g class="ld ld-fade" style="transform-origin: 50px 50px 0px; animation-duration: 1.9s; animation-delay: -1.84062s; animation-direction: normal;"><path class="st23" d="M15,64.3h40.5c3.1,0,5.6-2.5,5.6-5.6V31c0-3.1-2.5-5.6-5.6-5.6H15c-3.1,0-5.6,2.5-5.6,5.6v27.7 C9.4,61.8,11.9,64.3,15,64.3z" fill="#c8a661" stroke="#f5e6c8" style="fill: rgb(200, 166, 97); stroke: rgb(245, 230, 200);"></path></g><g class="ld ld-fade" style="transform-origin: 50px 50px 0px; animation-duration: 1.9s; animation-delay: -1.78125s; animation-direction: normal;"><path class="st15" d="M51.5,58.5L51.5,58.5c-0.5,0-1-0.4-1-1V24.6c0-0.5,0.4-1,1-1h0c0.5,0,1,0.4,1,1v32.9 C52.5,58.1,52.1,58.5,51.5,58.5z" fill="#ffffff" style="fill: rgb(255, 255, 255);"></path></g><g class="ld ld-fade" style="transform-origin: 50px 50px 0px; animation-duration: 1.9s; animation-delay: -1.72187s; animation-direction: normal;"><path class="st15" d="M40.6,58.5L40.6,58.5c-0.5,0-1-0.4-1-1V24.6c0-0.5,0.4-1,1-1l0,0c0.5,0,1,0.4,1,1v32.9 C41.6,58.1,41.2,58.5,40.6,58.5z" fill="#ffffff" style="fill: rgb(255, 255, 255);"></path></g><g class="ld ld-fade" style="transform-origin: 50px 50px 0px; animation-duration: 1.9s; animation-delay: -1.6625s; animation-direction: normal;"><path class="st15" d="M29.7,58.5L29.7,58.5c-0.5,0-1-0.4-1-1V24.6c0-0.5,0.4-1,1-1h0c0.5,0,1,0.4,1,1v32.9 C30.7,58.1,30.3,58.5,29.7,58.5z" fill="#ffffff" style="fill: rgb(255, 255, 255);"></path></g><g class="ld ld-fade" style="transform-origin: 50px 50px 0px; animation-duration: 1.9s; animation-delay: -1.60312s; animation-direction: normal;"><path class="st15" d="M18.8,58.5L18.8,58.5c-0.5,0-1-0.4-1-1V24.6c0-0.5,0.4-1,1-1h0c0.5,0,1,0.4,1,1v32.9 C19.8,58.1,19.4,58.5,18.8,58.5z" fill="#ffffff" style="fill: rgb(255, 255, 255);"></path></g><g class="ld ld-fade" style="transform-origin: 50px 50px 0px; animation-duration: 1.9s; animation-delay: -1.54375s; animation-direction: normal;"><rect x="7.9" y="57.1" class="st24" width="56.7" height="8" stroke="#f5e6c8" fill="#4a0145" style="stroke: rgb(245, 230, 200); fill: rgb(74, 1, 69);"></rect></g><g class="ld ld-fade" style="transform-origin: 50px 50px 0px; animation-duration: 1.9s; animation-delay: -1.48438s; animation-direction: normal;"><path class="st7" d="M11.9,59.2h-4c-0.2,0-0.4,0.2-0.4,0.4l0,3.4c0,0.2,0.2,0.4,0.4,0.4H12c1,0,1.8-0.8,1.8-1.8v-0.5 C13.8,60.1,12.9,59.2,11.9,59.2z" fill="rgb(225, 91, 100)" style="fill: rgb(225, 91, 100);"></path></g><g class="ld ld-fade" style="transform-origin: 50px 50px 0px; animation-duration: 1.9s; animation-delay: -1.425s; animation-direction: normal;"><path class="st4" d="M88.9,69.5H66.8c-1.6,0-2.8-1.3-2.8-2.8l0.1-31c0-1.6,1.3-2.8,2.8-2.8h13c1,0,2,0.6,2.5,1.5l8.9,16.2 c0.2,0.4,0.3,0.9,0.3,1.4v14.8C91.7,68.3,90.4,69.5,88.9,69.5z" fill="#4a0145" stroke="#4a0145" style="fill: rgb(74, 1, 69); stroke: rgb(74, 1, 69);"></path></g><g class="ld ld-fade" style="transform-origin: 50px 50px 0px; animation-duration: 1.9s; animation-delay: -1.36562s; animation-direction: normal;"><path class="st3" d="M73.5,65.1H9.7c0,0-0.3,0-0.3,0.4c0,2.4,1.3,4,3.3,4h60.8c1,0,1.7-1,1.7-2.2v0C75.2,66.1,74.4,65.1,73.5,65.1z" stroke="#f5e6c8" fill="#666666" style="stroke: rgb(245, 230, 200); fill: rgb(102, 102, 102);"></path></g><g style="transform-origin: 50px 50px 0px;"><g><g class="ld ld-fade" style="transform-origin: 50px 50px 0px; animation-duration: 1.9s; animation-delay: -1.30625s; animation-direction: normal;"><circle class="st5" cx="25.6" cy="67.4" r="7.4" stroke="#4a0145" fill="#ffffff" style="stroke: rgb(74, 1, 69); fill: rgb(255, 255, 255);"></circle></g><g class="ld ld-fade" style="transform-origin: 50px 50px 0px; animation-duration: 1.9s; animation-delay: -1.24687s; animation-direction: normal;"><path class="st0" d="M25.6,61.5c3.3,0,5.9,2.7,5.9,5.9s-2.7,5.9-5.9,5.9s-5.9-2.7-5.9-5.9S22.4,61.5,25.6,61.5 M25.6,58.5 c-4.9,0-8.9,4-8.9,8.9s4,8.9,8.9,8.9s8.9-4,8.9-8.9S30.6,58.5,25.6,58.5L25.6,58.5z" stroke="#f5e6c8" fill="#ffffff" style="stroke: rgb(245, 230, 200); fill: rgb(255, 255, 255);"></path></g></g></g><g style="transform-origin: 50px 50px 0px;"><g><g class="ld ld-fade" style="transform-origin: 50px 50px 0px; animation-duration: 1.9s; animation-delay: -1.1875s; animation-direction: normal;"><circle class="st27" cx="25.6" cy="67.4" r="4" fill="#333333" stroke="#77a4bd" style="fill: rgb(51, 51, 51); stroke: rgb(119, 164, 189);"></circle></g></g></g><g style="transform-origin: 50px 50px 0px;"><g><g class="ld ld-fade" style="transform-origin: 50px 50px 0px; animation-duration: 1.9s; animation-delay: -1.12813s; animation-direction: normal;"><circle class="st5" cx="72.9" cy="67.4" r="7.4" stroke="#4a0145" fill="#ffffff" style="stroke: rgb(74, 1, 69); fill: rgb(255, 255, 255);"></circle></g><g class="ld ld-fade" style="transform-origin: 50px 50px 0px; animation-duration: 1.9s; animation-delay: -1.06875s; animation-direction: normal;"><path class="st0" d="M72.9,61.5c3.3,0,5.9,2.7,5.9,5.9s-2.7,5.9-5.9,5.9S67,70.7,67,67.4S69.6,61.5,72.9,61.5 M72.9,58.5 c-4.9,0-8.9,4-8.9,8.9s4,8.9,8.9,8.9c4.9,0,8.9-4,8.9-8.9S77.8,58.5,72.9,58.5L72.9,58.5z" stroke="#f5e6c8" fill="#ffffff" style="stroke: rgb(245, 230, 200); fill: rgb(255, 255, 255);"></path></g></g></g><g style="transform-origin: 50px 50px 0px;"><g><g class="ld ld-fade" style="transform-origin: 50px 50px 0px; animation-duration: 1.9s; animation-delay: -1.00937s; animation-direction: normal;"><circle class="st27" cx="72.9" cy="67.4" r="4" fill="#333333" stroke="#77a4bd" style="fill: rgb(51, 51, 51); stroke: rgb(119, 164, 189);"></circle></g></g></g><g class="ld ld-fade" style="transform-origin: 50px 50px 0px; animation-duration: 1.9s; animation-delay: -0.95s; animation-direction: normal;"><path class="st2" d="M86.9,60.1h4.4c0.6,0,1.1-0.5,1.1-1.1v-1.9c0-0.6-0.5-1.1-1.1-1.1H87c-0.3,0-0.5,0.2-0.5,0.5v3.2 C86.5,59.9,86.7,60.1,86.9,60.1z" stroke="#4a0145" fill="#e0e0e0" style="stroke: rgb(74, 1, 69); fill: rgb(224, 224, 224);"></path></g><g class="ld ld-fade" style="transform-origin: 50px 50px 0px; animation-duration: 1.9s; animation-delay: -0.890625s; animation-direction: normal;"><path class="st0" d="M80.8,36.6c-0.4-0.7-1.1-1.2-2-1.2H68.5c-1.2,0-2.2,1-2.2,2.3l-0.1,13.5h22.7c0-0.2-0.1-0.4-0.2-0.6L80.8,36.6z " stroke="#f5e6c8" fill="#ffffff" style="stroke: rgb(245, 230, 200); fill: rgb(255, 255, 255);"></path></g><g class="ld ld-fade" style="transform-origin: 50px 50px 0px; animation-duration: 1.9s; animation-delay: -0.83125s; animation-direction: normal;"><path class="st24" d="M71.8,55.5h-3.5c-0.5,0-0.9-0.4-0.9-0.9l0,0c0-0.5,0.4-0.9,0.9-0.9h3.5c0.5,0,0.9,0.4,0.9,0.9l0,0 C72.7,55.1,72.3,55.5,71.8,55.5z" stroke="#f5e6c8" fill="#4a0145" style="stroke: rgb(245, 230, 200); fill: rgb(74, 1, 69);"></path></g><metadata xmlns:d="https://loading.io/stock/" class="ld ld-fade" style="transform-origin: 50px 50px 0px; animation-duration: 1.9s; animation-delay: -0.771875s; animation-direction: normal;">
<d:name class="ld ld-fade" style="transform-origin: 50px 50px 0px; animation-duration: 1.9s; animation-delay: -0.7125s; animation-direction: normal;">truck</d:name>
<d:tags class="ld ld-fade" style="transform-origin: 50px 50px 0px; animation-duration: 1.9s; animation-delay: -0.653125s; animation-direction: normal;">van,cargo,cab,car,ship,loader,wagon,vehicle,good,express,settle,truck,transportation</d:tags>
<d:license class="ld ld-fade" style="transform-origin: 50px 50px 0px; animation-duration: 1.9s; animation-delay: -0.59375s; animation-direction: normal;">cc-by</d:license>
<d:slug class="ld ld-fade" style="transform-origin: 50px 50px 0px; animation-duration: 1.9s; animation-delay: -0.534375s; animation-direction: normal;">doszq1</d:slug>
</metadata></g></g></g></g><style type="text/css" class="ld ld-fade" style="transform-origin: 50px 50px 0px; animation-duration: 1.9s; animation-delay: -0.475s; animation-direction: normal;">path,ellipse,circle,rect,polygon,polyline,line { stroke-width: 0; }@keyframes ld-fade {
  0% {
    opacity: 1;
  }
  100% {
    opacity: 0;
  }
}
@-webkit-keyframes ld-fade {
  0% {
    opacity: 1;
  }
  100% {
    opacity: 0;
  }
}
.ld.ld-fade {
  -webkit-animation: ld-fade 1s infinite linear;
  animation: ld-fade 1s infinite linear;
}
</style></svg>